…
``` r
deaths <- av %>%
  pivot_longer(cols = Death1:Death5, names_to = "Time", values_to = "Death") %>%
  mutate(Time = parse_number(Time)) %>%
  filter(Death != "")

deaths
```

    ## # A tibble: 282 × 14
    ##    URL                Name.Alias Appearances Current. Gender Probationary.Introl
    ##    <chr>              <chr>            <int> <chr>    <chr>  <chr>              
    ##  1 http://marvel.wik… "Henry Jo…        1269 YES      MALE   ""                 
    ##  2 http://marvel.wik… "Henry Jo…        1269 YES      MALE   ""                 
    ##  3 http://marvel.wik… "Janet va…        1165 YES      FEMALE ""                 
    ##  4 http://marvel.wik… "Janet va…        1165 YES      FEMALE ""                 
    ##  5 http://marvel.wik… "Anthony …        3068 YES      MALE   ""                 
    ##  6 http://marvel.wik… "Anthony …        3068 YES      MALE   ""                 
    ##  7 http://marvel.wik… "Robert B…        2089 YES      MALE   ""                 
    ##  8 http://marvel.wik… "Robert B…        2089 YES      MALE   ""                 
    ##  9 http://marvel.wik… "Thor Odi…        2402 YES      MALE   ""                 
    ## 10 http://marvel.wik… "Thor Odi…        2402 YES      MALE   ""                 
    ## # ℹ 272 more rows
    ## # ℹ 8 more variables: Full.Reserve.Avengers.Intro <chr>, Year <int>,
    ## #   Years.since.joining <int>, Honorary <chr>, Return5 <chr>, Notes <chr>,
    ## #   Time <dbl>, Death <chr>
…
Similarly, deal with the returns of characters.

``` r
returns <- av %>%
  pivot_longer(cols = Return1:Return5, names_to = "Time", values_to = "Return") %>%
  mutate(Time = parse_number(Time)) %>%
  filter(Return != "")

returns
```

    ## # A tibble: 110 × 14
    ##    URL                Name.Alias Appearances Current. Gender Probationary.Introl
    ##    <chr>              <chr>            <int> <chr>    <chr>  <chr>              
    ##  1 http://marvel.wik… "Henry Jo…        1269 YES      MALE   ""                 
    ##  2 http://marvel.wik… "Janet va…        1165 YES      FEMALE ""                 
    ##  3 http://marvel.wik… "Anthony …        3068 YES      MALE   ""                 
    ##  4 http://marvel.wik… "Robert B…        2089 YES      MALE   ""                 
    ##  5 http://marvel.wik… "Thor Odi…        2402 YES      MALE   ""                 
    ##  6 http://marvel.wik… "Thor Odi…        2402 YES      MALE   ""                 
    ##  7 http://marvel.wik… "Thor Odi…        2402 YES      MALE   ""                 
    ##  8 http://marvel.wik… "Steven R…        3458 YES      MALE   ""                 
    ##  9 http://marvel.wik… "Clinton …        1456 YES      MALE   ""                 
    ## 10 http://marvel.wik… "Clinton …        1456 YES      MALE   ""                 
    ## # ℹ 100 more rows
    ## # ℹ 8 more variables: Full.Reserve.Avengers.Intro <chr>, Year <int>,
    ## #   Years.since.joining <int>, Honorary <chr>, Death1 <chr>, Notes <chr>,
    ## #   Time <dbl>, Return <chr>
…
