…
deaths <- av %>%
  select(URL, Name.Alias, Death1:Death5, Return1:Return5) %>%
  pivot_longer(
    cols = c(Death1:Death5, Return1:Return5),
    names_to = c(".value", "Time"),
    names_pattern = "(Death|Return)(\\d)"
  ) %>%
  mutate(Time = as.numeric(Time)) %>%
  filter(Death != "")
# pivoted the death and return columns for later, late edit

deaths

## # A tibble: 194 × 5
##    URL                                             Name.Alias  Time Death Return
##    <chr>                                           <chr>      <dbl> <chr> <chr> 
##  1 http://marvel.wikia.com/Henry_Pym_(Earth-616)   "Henry Jo…     1 YES   "NO"  
##  2 http://marvel.wikia.com/Janet_van_Dyne_(Earth-… "Janet va…     1 YES   "YES" 
##  3 http://marvel.wikia.com/Anthony_Stark_(Earth-6… "Anthony …     1 YES   "YES" 
##  4 http://marvel.wikia.com/Robert_Bruce_Banner_(E… "Robert B…     1 YES   "YES" 
##  5 http://marvel.wikia.com/Thor_Odinson_(Earth-61… "Thor Odi…     1 YES   "YES" 
##  6 http://marvel.wikia.com/Thor_Odinson_(Earth-61… "Thor Odi…     2 YES   "NO"  
##  7 http://marvel.wikia.com/Richard_Jones_(Earth-6… "Richard …     1 NO    ""    
##  8 http://marvel.wikia.com/Steven_Rogers_(Earth-6… "Steven R…     1 YES   "YES" 
##  9 http://marvel.wikia.com/Clint_Barton_(Earth-61… "Clinton …     1 YES   "YES" 
## 10 http://marvel.wikia.com/Clint_Barton_(Earth-61… "Clinton …     2 YES   "YES" 
## # ℹ 184 more rows
…
Similarly, deal with the returns of characters.

returns <- av %>%
  select(URL, Name.Alias, Return1:Return5) %>%
  pivot_longer(cols = Return1:Return5, names_to = "Time", values_to = "Return") %>%
  mutate(Time = parse_number(Time)) %>%
  filter(Return != "")
# added a select, late edit

returns

## # A tibble: 110 × 4
##    URL                                                   Name.Alias  Time Return
##    <chr>                                                 <chr>      <dbl> <chr> 
##  1 http://marvel.wikia.com/Henry_Pym_(Earth-616)         "Henry Jo…     1 NO    
##  2 http://marvel.wikia.com/Janet_van_Dyne_(Earth-616)    "Janet va…     1 YES   
##  3 http://marvel.wikia.com/Anthony_Stark_(Earth-616)     "Anthony …     1 YES   
##  4 http://marvel.wikia.com/Robert_Bruce_Banner_(Earth-6… "Robert B…     1 YES   
##  5 http://marvel.wikia.com/Thor_Odinson_(Earth-616)      "Thor Odi…     1 YES   
##  6 http://marvel.wikia.com/Thor_Odinson_(Earth-616)      "Thor Odi…     2 YES   
##  7 http://marvel.wikia.com/Thor_Odinson_(Earth-616)      "Thor Odi…     2 NO    
##  8 http://marvel.wikia.com/Steven_Rogers_(Earth-616)     "Steven R…     1 YES   
##  9 http://marvel.wikia.com/Clint_Barton_(Earth-616)      "Clinton …     1 YES   
## 10 http://marvel.wikia.com/Clint_Barton_(Earth-616)      "Clinton …     2 YES   
## # ℹ 100 more rows
…
